[gd_resource type="ShaderMaterial" load_steps=3 format=2]

[ext_resource path="res://Textures/ptypewall1.png" type="Texture" id=1]
[ext_resource path="res://Shaders/psx.shader" type="Shader" id=2]

[resource]
shader = ExtResource( 2 )
shader_param/tint_color = Color( 1, 1, 1, 1 )
shader_param/specular_intensity = null
shader_param/vertex_resolution = 256.0
shader_param/cull_distance = 9999.0
shader_param/uv_scale = Vector2( 1, 1 )
shader_param/uv_offset = Vector2( 0, 0 )
shader_param/uv_speed = Vector2( 0, -1 )
shader_param/affine_texture_mapping = false
shader_param/emissive = false
shader_param/moving_uv = false
shader_param/double_sided = true
shader_param/stippled_transparent = false
shader_param/albedoTex = ExtResource( 1 )
